3 - Manipulating a track table • trackdf
…
To create a track table based on tibble, do:

t_tbl <- track(x = tracks$x, y = tracks$y, t = tracks$t, id = tracks$id,
  proj = "+proj=longlat", tz = "Africa/Windhoek", table = "tbl")
t_tbl 

## Track table [7194 observations]
## Number of tracks:  2 
## Dimensions:  2D 
## Geographic:  TRUE 
## Projection:  +proj=longlat +datum=WGS84 +no_defs 
## Table class:  tibble
## # A tibble: 7,194 x 4
##    id    t                       x     y
##    <chr> <dttm>              <dbl> <dbl>
##  1 1     2015-09-10 07:00:00  15.8 -22.4
##  2 1     2015-09-10 07:00:01  15.8 -22.4
##  3 1     2015-09-10 07:00:04  15.8 -22.4
##  4 1     2015-09-10 07:00:05  15.8 -22.4
##  5 1     2015-09-10 07:00:08  15.8 -22.4
##  6 1     2015-09-10 07:00:09  15.8 -22.4
##  7 1     2015-09-10 07:00:10  15.8 -22.4
##  8 1     2015-09-10 07:00:11  15.8 -22.4
##  9 1     2015-09-10 07:00:12  15.8 -22.4
## 10 1     2015-09-10 07:00:13  15.8 -22.4
## # … with 7,184 more rows
…
head(t_df[1])

##   id
## 1  1
## 2  1
## 3  1
## 4  1
## 5  1
## 6  1

t_tbl[1]

## # A tibble: 7,194 x 1
##    id   
##    <chr>
##  1 1    
##  2 1    
##  3 1    
##  4 1    
##  5 1    
##  6 1    
##  7 1    
##  8 1    
##  9 1    
## 10 1    
## # … with 7,184 more rows
…
