Extract or Replace Parts of a Track Table — [.track • trackdf
…
    See also

    track_df, track_tbl, track_dt

    Examples

library(trackdf)
t_df <- track_df(x = tracks$x, y = tracks$y, t = tracks$t, id = tracks$id,
  proj = "+proj=longlat", tz = "Africa/Windhoek")

tracks[1]
#> # A tibble: 7,194 x 1
#>    id   
#>    <chr>
#>  1 1    
#>  2 1    
#>  3 1    
#>  4 1    
#>  5 1    
#>  6 1    
#>  7 1    
#>  8 1    
#>  9 1    
#> 10 1    
#> # … with 7,184 more rows
…
