2 - Building a track table • trackdf
…
tt <- track(x = raw$x, y = raw$y, t = raw$frame, id = raw$track_fixed, 
            ignore = raw$ignore,
            origin = "2019-03-24 12:55:23", 
            period = "0.04S", # 1/25 of a second
            tz = "America/New_York",
            table = "tbl")
print(tt)

## Track table [21982 observations]
## Number of tracks:  81 
## Dimensions:  2D 
## Geographic:  FALSE 
## Table class:  tibble ('tbl_df')
## # A tibble: 21,982 × 5
##    id    t                       x     y ignore
##    <chr> <dttm>              <dbl> <dbl> <lgl> 
##  1 1     2019-03-24 12:55:23  629.  882. FALSE 
##  2 2     2019-03-24 12:55:23 1056.  657. FALSE 
##  3 3     2019-03-24 12:55:23  508.  375. FALSE 
##  4 4     2019-03-24 12:55:23 1278.  374. FALSE 
##  5 5     2019-03-24 12:55:23 1379.  343. FALSE 
##  6 6     2019-03-24 12:55:23 1137.  175. FALSE 
##  7 7     2019-03-24 12:55:23  737.  116. FALSE 
##  8 8     2019-03-24 12:55:23  922.  103. FALSE 
##  9 1     2019-03-24 12:55:23  629.  882. FALSE 
## 10 2     2019-03-24 12:55:23 1056.  656. FALSE 
## # … with 21,972 more rows
…
