4 - Detecting errors • trackdf
…
                        Simon
Garnier

      Source: vignettes/z4_errors.Rmd
      z4_errors.Rmd

Missing observations and recording errors are fairly common in
tracking data. They can be caused by hardware failures, object
occultation, faulty data writing, etc. trackdf provides a
few functions to help detect this missing or erroneous data so that you
can fix them or omit them altogether from your analysis.

But first, let’s load some “flawed” data provided with
trackdf:

library(trackdf)

## 
## Attaching package: 'trackdf'

## The following object is masked from 'package:stats':
## 
##     filter

raw <- read.csv(system.file("extdata/gps/01.csv", package = "trackdf"))
tt <- track(x = raw$lon, y = raw$lat, t = paste(raw$date, raw$time), id = 1,  
            proj = "+proj=longlat", tz = "Africa/Windhoek")

## Warning: 1 failed to parse.

print(tt, max = 10 * ncol(tt))

## Track table [3599 observations]
## Number of tracks:  1 
## Dimensions:  2D 
## Geographic:  TRUE 
## Projection:  +proj=longlat 
## Table class:  data frame ('data.frame')
##    id                   t        x         y
## 1   1 2015-09-10 07:00:00 15.76468 -22.37957
## 2   1 2015-09-10 07:00:01 15.76468 -22.37957
## 3   1 2015-09-10 07:00:04 15.76468 -22.37958
## 4   1 2015-09-10 07:00:05 15.76468 -22.37958
## 5   1 2015-09-10 07:00:06       NA -22.37958
## 6   1 2015-09-10 07:00:07 15.76467        NA
## 7   1 2015-09-10 07:00:08 15.76467 -22.37959
## 8   1 2015-09-10 07:00:09 15.76467 -22.37959
## 9   1 2015-09-10 07:00:09 15.76467 -22.37959
## 10  1 2015-09-10 07:00:10 15.76467 -22.37959
##  [ reached 'max' / getOption("max.print") -- omitted 3589 rows ]
…
